Validate and coerce any object as a data processing elements — as_data_proc_elem • harmonizR
…
    Examples

{

# You can use our demonstration files to run examples
library(madshapR) # import DEMO_files

as_data_proc_elem(
  DEMO_files$`data_processing_elements - final`$dataProcessing)
}
#> # A tibble: 52 × 19
#>    index dataschema_variable valueType ss_table            ss_variables
#>  * <dbl> <chr>               <chr>     <chr>               <chr>       
#>  1     1 adm_unique_id       text      dataset_MELBOURNE_1 id          
#>  2     1 adm_unique_id       text      dataset_MELBOURNE_2 id          
#>  3     1 adm_unique_id       text      dataset_PARIS       ID          
#>  4     1 adm_unique_id       text      dataset_TOKYO       part_id     
#>  5     2 adm_study           text      dataset_MELBOURNE_1 __BLANK__   
#>  6     2 adm_study           text      dataset_MELBOURNE_2 __BLANK__   
#>  7     2 adm_study           text      dataset_PARIS       __BLANK__   
#>  8     2 adm_study           text      dataset_TOKYO       __BLANK__   
#>  9     3 adm_year_dce        text      dataset_MELBOURNE_1 __BLANK__   
#> 10     3 adm_year_dce        text      dataset_MELBOURNE_2 __BLANK__   
#> # ℹ 42 more rows
#> # ℹ 14 more variables: `Mlstr::rule_category` <chr>, `Mlstr::algorithm` <chr>,
#> #   `Mlstr::comment` <lgl>, `Mlstr::status` <lgl>,
#> #   `Mlstr::status_detail` <lgl>, ss_dataschema_table <chr>, ss_acronym <chr>,
#> #   ss_format <lgl>, ss_time_period <lgl>, ss_time_collection <lgl>,
#> #   ss_source_information <lgl>, ss_informant <lgl>, ss_keywords <lgl>,
#> #   comment_internal <lgl>
…
