Generate the pooled dataset from harmonized datasets in a dossier — pooled_harmonized_dataset_create • harmonizR
…
data_proc_elem <- 
  DEMO_files$`data_processing_elements - final`$`dataProcessing`
  
# perform harmonization 
harmonized_dossier <- 
  silently_run(harmo_process(dossier,dataschema,data_proc_elem))

pooled_harmonized_dataset_create(
  harmonized_dossier,
  unique_col_dataset = 'harmonizR_dataset_name',
  unique_col_id = 'harmonizR_unique_id')
  
}
#> # A tibble: 38 × 15
#>    harmonizR_dataset_name            harmonizR_unique_id adm_unique_id adm_study
#>  * <chr+lbl>                         <chr>               <chr>         <chr>    
#>  1 dataset_MELBOURNE_1 [harmonized … dataset_MELBOURNE_… 377943        MELBOURNE
#>  2 dataset_MELBOURNE_1 [harmonized … dataset_MELBOURNE_… 497013        MELBOURNE
#>  3 dataset_MELBOURNE_1 [harmonized … dataset_MELBOURNE_… 927676        MELBOURNE
#>  4 dataset_MELBOURNE_1 [harmonized … dataset_MELBOURNE_… 995667        MELBOURNE
#>  5 dataset_MELBOURNE_1 [harmonized … dataset_MELBOURNE_… 21829         MELBOURNE
#>  6 dataset_MELBOURNE_1 [harmonized … dataset_MELBOURNE_… 209432        MELBOURNE
#>  7 dataset_MELBOURNE_1 [harmonized … dataset_MELBOURNE_… 272983        MELBOURNE
#>  8 dataset_MELBOURNE_1 [harmonized … dataset_MELBOURNE_… 580632        MELBOURNE
#>  9 dataset_MELBOURNE_1 [harmonized … dataset_MELBOURNE_… 304624        MELBOURNE
#> 10 dataset_MELBOURNE_1 [harmonized … dataset_MELBOURNE_… 637551        MELBOURNE
#> # ℹ 28 more rows
#> # ℹ 11 more variables: adm_year_dce <chr>, sdc_age <int>, sdc_gender <int+lbl>,
#> #   phy_height <dbl>, phy_weight <dbl>, phy_bmi <dbl>, rep_preg_ever <int+lbl>,
#> #   rep_preg_curr <int+lbl>, lsb_smo_ever <int+lbl>, lsb_smo_curr <int+lbl>,
#> #   lsb_smo_status <int+lbl>
…
